{
  "collection": "@nestjs/schematics",
  "root": ".",
  "sourceRoot": "src",
  "entryFile": "sample/01-register/main",
  "compilerOptions": {
    "assets": ["**/*.proto"],
    "watchAssets": true
  },
  "projects": {
    "register": {
      "type": "application",
      "entryFile": "sample/01-register/main"
    },
    "registerAsync": {
      "type": "application",
      "entryFile": "sample/02-register-async/main"
    }
  }
}
